…
#Left Join of join_1 (left join of hiv1 and life_expectancy_1 dataframes) 
# and worldbank_data dataframes
join_2 <- left_join(join_1, worldbank_data_1, by = c("country"="country", 
                                                     "year"="date"))

#Left Join of join_1 (left join of hiv1 and life_expectancy_1 dataframes) 
# and worldbank_data dataframes
join_3 <- left_join(join_2, countries, "country"="country") %>%
  drop_na()
join_3

## # A tibble: 1,083 × 25
##    country  year Life_Expectancy Percentage_HIV_Case… iso2c iso3c NY.GDP.PCAP.KD
##    <chr>   <dbl>           <dbl>                <dbl> <chr> <chr>          <dbl>
##  1 Algeria  1990            71.7                 0.06 DZ    DZA            3572.
##  2 Algeria  1991            72.2                 0.06 DZ    DZA            3444.
##  3 Algeria  1992            72.5                 0.06 DZ    DZA            3424.
##  4 Algeria  1993            72.7                 0.06 DZ    DZA            3279.
##  5 Algeria  1994            72.8                 0.06 DZ    DZA            3183.
##  6 Algeria  1995            72.9                 0.06 DZ    DZA            3241.
##  7 Algeria  1996            73.3                 0.06 DZ    DZA            3315.
##  8 Algeria  1997            73.2                 0.06 DZ    DZA            3298.
##  9 Algeria  1999            73.9                 0.06 DZ    DZA            3474.
## 10 Algeria  2000            74                   0.06 DZ    DZA            3558.
## # … with 1,073 more rows, and 18 more variables: SE.PRM.NENR <dbl>,
## #   SH.DYN.MORT <dbl>, SP.DYN.TFRT.IN <dbl>, capital_city <chr>,
## #   longitude <dbl>, latitude <dbl>, region_iso3c <chr>, region_iso2c <chr>,
## #   region <chr>, admin_region_iso3c <chr>, admin_region_iso2c <chr>,
## #   admin_region <chr>, income_level_iso3c <chr>, income_level_iso2c <chr>,
## #   income_level <chr>, lending_type_iso3c <chr>, lending_type_iso2c <chr>,
## #   lending_type <chr>
…
Which regions have the most observations with missing HIV data? Generate a bar chart (geom_col()), in descending order.
Region ‘Sub-Saharan Africa’ has the most observations with missing HIV data. This is followed by Europe & Central Asia with the 2nd most observations with missing HIV data.

#Tidying hiv dataframe
tidy_hiv <- hiv %>% 
  pivot_longer(cols=2:34, names_to="year", values_to = "Percentage_HIV_Cases_Age_15_49")
#Left joining tidy_hiv and countries dataframes
joined_hiv_countries <- left_join(tidy_hiv, countries, "country"= "country")
joined_hiv_countries

## # A tibble: 5,082 × 20
##    country     year  Percentage_HIV_… iso3c iso2c capital_city longitude latitude
##    <chr>       <chr>            <dbl> <chr> <chr> <chr>            <dbl>    <dbl>
##  1 Afghanistan 1979                NA AFG   AF    Kabul             69.2     34.5
##  2 Afghanistan 1980                NA AFG   AF    Kabul             69.2     34.5
##  3 Afghanistan 1981                NA AFG   AF    Kabul             69.2     34.5
##  4 Afghanistan 1982                NA AFG   AF    Kabul             69.2     34.5
##  5 Afghanistan 1983                NA AFG   AF    Kabul             69.2     34.5
##  6 Afghanistan 1984                NA AFG   AF    Kabul             69.2     34.5
##  7 Afghanistan 1985                NA AFG   AF    Kabul             69.2     34.5
##  8 Afghanistan 1986                NA AFG   AF    Kabul             69.2     34.5
##  9 Afghanistan 1987                NA AFG   AF    Kabul             69.2     34.5
## 10 Afghanistan 1988                NA AFG   AF    Kabul             69.2     34.5
## # … with 5,072 more rows, and 12 more variables: region_iso3c <chr>,
## #   region_iso2c <chr>, region <chr>, admin_region_iso3c <chr>,
## #   admin_region_iso2c <chr>, admin_region <chr>, income_level_iso3c <chr>,
## #   income_level_iso2c <chr>, income_level <chr>, lending_type_iso3c <chr>,
## #   lending_type_iso2c <chr>, lending_type <chr>
…
4. How has mortality rate for under 5 changed by region? In each region, find the top 5 countries that have seen the greatest improvement, as well as those 5 countries where mortality rates have had the least improvement or even deterioration.

#Minimum Year and Maximum Year determination
mortality <- join_3 %>% 
  group_by(country) %>%
  summarise(minimum_year=min(year), maximum_year=max(year))
mortality

## # A tibble: 92 × 3
##    country    minimum_year maximum_year
##    <chr>             <dbl>        <dbl>
##  1 Algeria            1990         2008
##  2 Angola             1998         2011
##  3 Argentina          1991         2011
##  4 Armenia            2002         2011
##  5 Azerbaijan         1991         2011
##  6 Bangladesh         1990         2010
##  7 Belarus            1995         2011
##  8 Belize             1999         2011
##  9 Benin              1984         2011
## 10 Bhutan             1998         2011
## # … with 82 more rows
…
#Left Joining join_3 and mortality dataframes
join_5 <- left_join(join_3, mortality, "country"="country") %>% 
# Selecting required columns
select(country, year, minimum_year, maximum_year, SH.DYN.MORT, region) %>% 
#Determining original mortality rates
mutate(
  original_mortality = ifelse(year == minimum_year, SH.DYN.MORT, 0)) %>% 
  
select(!year) %>%
filter(!original_mortality == 0)%>%
select(!SH.DYN.MORT)

join_5

## # A tibble: 92 × 5
##    country    minimum_year maximum_year region                     original_mortal…
##    <chr>             <dbl>        <dbl> <chr>                                 <dbl>
##  1 Algeria            1990         2008 Middle East & North Africa             49.5
##  2 Angola             1998         2011 Sub-Saharan Africa                    214. 
##  3 Argentina          1991         2011 Latin America & Caribbean              28.1
##  4 Armenia            2002         2011 Europe & Central Asia                  27.8
##  5 Azerbaijan         1991         2011 Europe & Central Asia                  95.3
##  6 Bangladesh         1990         2010 South Asia                            144. 
##  7 Belarus            1995         2011 Europe & Central Asia                  15.6
##  8 Belize             1999         2011 Latin America & Caribbean              24.4
##  9 Benin              1984         2011 Sub-Saharan Africa                    199. 
## 10 Bhutan             1998         2011 South Asia                             86.1
## # … with 82 more rows
# Dataframe with final mortality rates
#Left Joining join_3 and mortality dataframes
join_6 <- left_join(join_3, mortality, "country"="country") %>% 
# Selecting required columns
select(country, year, minimum_year, maximum_year, SH.DYN.MORT, region) %>% 
#Determining final mortality rates
mutate(
  final_mortality = ifelse(year == maximum_year, SH.DYN.MORT, 0)) %>%  
select(!year) %>%
filter(!final_mortality == 0)%>%
select(!SH.DYN.MORT)

join_6

## # A tibble: 92 × 5
##    country    minimum_year maximum_year region                     final_mortality
##    <chr>             <dbl>        <dbl> <chr>                                <dbl>
##  1 Algeria            1990         2008 Middle East & North Africa            29.5
##  2 Angola             1998         2011 Sub-Saharan Africa                   112. 
##  3 Argentina          1991         2011 Latin America & Caribbean             13.9
##  4 Armenia            2002         2011 Europe & Central Asia                 17.6
##  5 Azerbaijan         1991         2011 Europe & Central Asia                 35  
##  6 Bangladesh         1990         2010 South Asia                            48.7
##  7 Belarus            1995         2011 Europe & Central Asia                  5.1
##  8 Belize             1999         2011 Latin America & Caribbean             18.3
##  9 Benin              1984         2011 Sub-Saharan Africa                   109. 
## 10 Bhutan             1998         2011 South Asia                            39.9
## # … with 82 more rows

# Joining aforementioned join_5 and join_6 dataframes along with Improvement in Mortality Rates calculation
join_7 <- left_join(join_5, join_6, "country"="country") %>%  #Left Joining join_5 and join_6
  mutate(
    mortality_improvement = (final_mortality - original_mortality)/original_mortality) %>%
  arrange(desc(mortality_improvement))

join_7

## # A tibble: 92 × 7
##    country   minimum_year maximum_year region   original_mortal… final_mortality
##    <chr>            <dbl>        <dbl> <chr>               <dbl>           <dbl>
##  1 South Af…         1991         2005 Sub-Sah…             56              79.1
##  2 Gabon             1997         1997 Sub-Sah…             87.2            87.2
##  3 Haiti             1997         1997 Latin A…            115.            115. 
##  4 South Su…         2011         2011 Sub-Sah…            102.            102. 
##  5 Sudan             2011         2011 Sub-Sah…             73.4            73.4
##  6 Lesotho           1984         2011 Sub-Sah…            101.             96.1
##  7 Zimbabwe          1998         2003 Sub-Sah…             95.6            90.6
##  8 Sao Tome…         2009         2010 Sub-Sah…             47.9            45  
##  9 Uzbekist…         2007         2008 Europe …             41.3            38.5
## 10 Ethiopia          2009         2011 Sub-Sah…             86.7            77.6
## # … with 82 more rows, and 1 more variable: mortality_improvement <dbl>
…
