…
  # assume independence, i.e, there is no difference
  hypothesize(null = "independence") %>%
  
  # generate 1000 reps, of type "permute"
  generate(reps = 1000, type = "permute") %>%
  
  # calculate statistic of difference, namely "diff in means"
  calculate(stat = "diff in means", order = c("yes", "no"))

null_dist

## Response: weight (numeric)
## Explanatory: physical_3plus (factor)
## Null Hypothesis: independence
## # A tibble: 1,000 × 2
##    replicate    stat
##        <int>   <dbl>
##  1         1 -0.573 
##  2         2 -0.0306
##  3         3 -0.0364
##  4         4  0.223 
##  5         5  0.117 
##  6         6 -0.0646
##  7         7  0.181 
##  8         8  0.126 
##  9         9 -0.424 
## 10        10  0.457 
## # … with 990 more rows
…
# Using GDP formula to calculate GDP using GDP components - the sum of Household Expenditure (Consumption *C*), Gross Capital Formation (business investment *I*), Government Expenditure (G) and Net Exports (exports - imports)
tidy_GDP_data_2 <- tidy_GDP_data_2 %>%
  mutate(calculated_GDP = tidy_GDP_data_2$`Household expenditure`+ tidy_GDP_data_2$`Gross capital formation`+ tidy_GDP_data_2$`Government expenditure`+ tidy_GDP_data_2$`Exports`- tidy_GDP_data_2$`Imports`)
#Calculating % difference between calculated GDP and UN_GDP_data GDP Figures
tidy_GDP_data_2 <- tidy_GDP_data_2 %>%
  mutate(percentage_difference_calculatedGDP_columnGDP = (((calculated_GDP / tidy_GDP_data_2$`Gross Domestic Product (GDP)`)-1) * 100))

tidy_GDP_data_2

## # A tibble: 10,560 × 22
##    CountryID Country     year  `Final consumpt… `Household expe… `Government exp…
##        <dbl> <chr>       <chr>            <dbl>            <dbl>            <dbl>
##  1         4 Afghanistan 1970              5.56             5.07            0.372
##  2         4 Afghanistan 1971              5.33             4.84            0.382
##  3         4 Afghanistan 1972              5.20             4.70            0.402
##  4         4 Afghanistan 1973              5.75             5.21            0.421
##  5         4 Afghanistan 1974              6.15             5.59            0.431
##  6         4 Afghanistan 1975              6.32             5.65            0.598
##  7         4 Afghanistan 1976              6.37             5.68            0.627
##  8         4 Afghanistan 1977              6.90             6.15            0.676
##  9         4 Afghanistan 1978              7.09             6.30            0.725
## 10         4 Afghanistan 1979              6.92             6.15            0.708
## # … with 10,550 more rows, and 16 more variables:
## #   Gross capital formation <dbl>,
## #   Gross fixed capital formation (including Acquisitions less disposals of valuables) <dbl>,
## #   Exports <dbl>, Imports <dbl>, Gross Domestic Product (GDP) <dbl>,
## #   Agriculture, hunting, forestry, fishing (ISIC A-B) <dbl>,
## #   Mining, Manufacturing, Utilities (ISIC C-E) <dbl>,
## #   Manufacturing (ISIC D) <dbl>, Construction (ISIC F) <dbl>, …
…
